<?xml version="1.0" encoding="utf-8"?>
<COLLADA xmlns="http://www.collada.org/2005/11/COLLADASchema" version="1.4.1" xmlns:xsi="http://www.w3.org/2001/XMLSchema-instance">
  <asset>
    <contributor>
      <author>Blender User</author>
      <authoring_tool>Blender 2.83.4 commit date:2020-08-05, commit time:06:00, hash:c113af82881a</authoring_tool>
    </contributor>
    <created>2020-09-13T10:02:15</created>
    <modified>2020-09-13T10:02:15</modified>
    <unit name="meter" meter="1"/>
    <up_axis>Z_UP</up_axis>
  </asset>
  <library_effects>
    <effect id="BOX_STUFF15_008-effect">
      <profile_COMMON>
        <newparam sid="BOX_STUFF15_jpg-surface">
          <surface type="2D">
            <init_from>BOX_STUFF15_jpg</init_from>
          </surface>
        </newparam>
        <newparam sid="BOX_STUFF15_jpg-sampler">
          <sampler2D>
            <source>BOX_STUFF15_jpg-surface</source>
          </sampler2D>
        </newparam>
        <technique sid="common">
          <lambert>
            <emission>
              <color sid="emission">0 0 0 1</color>
            </emission>
            <diffuse>
              <texture texture="BOX_STUFF15_jpg-sampler" texcoord="ID28_008-mesh-map-0"/>
            </diffuse>
            <index_of_refraction>
              <float sid="ior">1.45</float>
            </index_of_refraction>
          </lambert>
        </technique>
      </profile_COMMON>
    </effect>
  </library_effects>
  <library_images>
    <image id="BOX_STUFF15_jpg" name="BOX_STUFF15_jpg">
      <init_from>BOX_STUFF15.jpg</init_from>
    </image>
  </library_images>
  <library_materials>
    <material id="BOX_STUFF15_008-material" name="BOX_STUFF15.008">
      <instance_effect url="#BOX_STUFF15_008-effect"/>
    </material>
  </library_materials>
  <library_geometries>
    <geometry id="ID28_008-mesh" name="ID28.008">
      <mesh>
        <source id="ID28_008-mesh-positions">
          <float_array id="ID28_008-mesh-positions-array" count="480">12.99209 -12.98754 7.610569 -3.70614e-5 12.99671 7.478679 -3.70614e-5 -12.98754 7.478679 12.99209 12.99671 7.610569 12.99209 -12.98754 7.610569 -3.70614e-5 -12.98754 7.348758 12.99209 -12.98754 7.216868 -3.70614e-5 -12.98754 7.478679 12.99209 12.99671 7.216868 12.99209 -12.98754 7.610569 12.99209 -12.98754 7.216868 12.99209 12.99671 7.610569 -3.70614e-5 12.99671 7.348758 12.99209 12.99671 7.610569 12.99209 12.99671 7.216868 -3.70614e-5 12.99671 7.478679 -3.70614e-5 12.99671 7.478679 -3.70614e-5 -12.98754 7.348758 -3.70614e-5 -12.98754 7.478679 -3.70614e-5 12.99671 7.348758 12.99209 12.99671 7.216868 -3.70614e-5 -12.98754 7.348758 -3.70614e-5 12.99671 7.348758 12.99209 -12.98754 7.216868 -12.79825 -12.99903 -6.257357 -12.79825 12.99672 -6.257355 -12.79825 -12.99903 7.518418 -12.79825 12.99672 7.51842 -12.79825 12.99672 7.51842 -12.79825 12.99672 -6.257355 12.79817 12.99672 7.51842 12.79817 12.99672 -6.257355 12.79817 12.99672 -6.257355 -12.79825 12.99672 -6.257355 12.79817 -12.99903 -6.257357 -12.79825 -12.99903 -6.257357 -12.79825 -12.99903 -6.257357 -12.79825 -12.99903 7.518418 12.79817 -12.99903 -6.257357 12.79817 -12.99903 7.518418 -13.18607 12.90351 7.389806 -13.18607 -12.90581 7.389804 -12.79825 12.99672 7.51842 -12.79825 -12.99903 7.518418 12.79817 -12.99903 -6.257357 12.79817 -12.99903 7.518418 12.79817 12.99672 -6.257355 12.79817 12.99672 7.51842 -12.67026 13.27918 7.389806 -12.79825 12.99672 7.51842 12.67019 13.27918 7.389806 12.79817 12.99672 7.51842 12.79817 -12.99903 7.518418 -12.79825 -12.99903 7.518418 12.67019 -13.28149 7.389804 -12.67026 -13.28149 7.389804 -12.67026 -13.28149 7.389804 -12.79825 -12.99903 7.518418 -13.18607 -12.90581 7.389804 -13.18607 -12.90581 -6.486003 -13.18607 -12.90581 7.389804 -13.18607 12.90351 -6.486001 -13.18607 12.90351 7.389806 -13.18607 12.90351 7.389806 -12.79825 12.99672 7.51842 -12.67026 13.27918 7.389806 13.186 12.90351 7.389806 12.79817 12.99672 7.51842 13.186 -12.90581 7.389804 12.79817 -12.99903 7.518418 -12.67026 13.27918 -6.486001 -12.67026 13.27918 7.389806 12.67019 13.27918 -6.486001 12.67019 13.27918 7.389806 12.79817 12.99672 7.51842 13.186 12.90351 7.389806 12.67019 13.27918 7.389806 -12.67026 -13.28149 7.389804 -12.67026 -13.28149 -6.486003 12.67019 -13.28149 7.389804 12.67019 -13.28149 -6.486003 12.79817 -12.99903 7.518418 12.67019 -13.28149 7.389804 13.186 -12.90581 7.389804 -13.18607 -12.90581 7.389804 -13.18607 -12.90581 -6.486003 -12.67026 -13.28149 7.389804 -12.67026 -13.28149 -6.486003 -13.18607 12.90351 -6.486001 -12.79825 12.99672 -6.614615 -13.18607 -12.90581 -6.486003 -12.79825 -12.99903 -6.614617 -12.67026 13.27918 -6.486001 -13.18607 12.90351 -6.486001 -12.67026 13.27918 7.389806 -13.18607 12.90351 7.389806 13.186 12.90351 -6.486001 13.186 12.90351 7.389806 13.186 -12.90581 -6.486003 13.186 -12.90581 7.389804 -12.67026 13.27918 -6.486001 12.67019 13.27918 -6.486001 -12.79825 12.99672 -6.614615 12.79817 12.99672 -6.614615 12.67019 13.27918 -6.486001 12.67019 13.27918 7.389806 13.186 12.90351 -6.486001 13.186 12.90351 7.389806 -12.79825 -12.99903 -6.614617 12.79817 -12.99903 -6.614617 -12.67026 -13.28149 -6.486003 12.67019 -13.28149 -6.486003 13.186 -12.90581 -6.486003 13.186 -12.90581 7.389804 12.67019 -13.28149 -6.486003 12.67019 -13.28149 7.389804 -12.79825 -12.99903 -6.614617 -12.67026 -13.28149 -6.486003 -13.18607 -12.90581 -6.486003 -12.79825 12.99672 -6.614615 12.79817 12.99672 -6.614615 -12.79825 -12.99903 -6.614617 12.79817 -12.99903 -6.614617 -12.79825 12.99672 -6.614615 -13.18607 12.90351 -6.486001 -12.67026 13.27918 -6.486001 13.186 12.90351 -6.486001 13.186 -12.90581 -6.486003 12.79817 12.99672 -6.614615 12.79817 -12.99903 -6.614617 13.186 12.90351 -6.486001 12.79817 12.99672 -6.614615 12.67019 13.27918 -6.486001 12.67019 -13.28149 -6.486003 12.79817 -12.99903 -6.614617 13.186 -12.90581 -6.486003 -12.99217 12.99671 7.610571 -12.99216 -12.98753 7.610571 -4.14517e-5 12.99671 7.478679 -3.60648e-5 -12.98753 7.478679 -3.60648e-5 -12.98753 7.478679 -12.99216 -12.98753 7.610571 -3.60861e-5 -12.98753 7.348758 -12.99216 -12.98753 7.21687 -12.99217 12.99671 7.610571 -12.99217 12.99671 7.21687 -12.99216 -12.98753 7.610571 -12.99216 -12.98753 7.21687 -4.14517e-5 12.99671 7.478679 -4.1473e-5 12.99671 7.348758 -12.99217 12.99671 7.610571 -12.99217 12.99671 7.21687 -4.1473e-5 12.99671 7.348758 -4.14517e-5 12.99671 7.478679 -3.60861e-5 -12.98753 7.348758 -3.60648e-5 -12.98753 7.478679 -12.99216 -12.98753 7.21687 -12.99217 12.99671 7.21687 -3.60861e-5 -12.98753 7.348758 -4.1473e-5 12.99671 7.348758</float_array>
          <technique_common>
            <accessor source="#ID28_008-mesh-positions-array" count="160" stride="3">
              <param name="X" type="float"/>
              <param name="Y" type="float"/>
              <param name="Z" type="float"/>
            </accessor>
          </technique_common>
        </source>
        <source id="ID28_008-mesh-normals">
          <float_array id="ID28_008-mesh-normals-array" count="156">-0.01015096 0 0.9999485 -0.0101509 0 0.9999485 0 -1 0 1 0 0 0 1 0 -1 0 0 -0.0101509 0 -0.9999485 -0.01015108 0 -0.9999485 0 0 1 -0.3147764 0 0.9491659 -0.3147773 0 0.9491657 0 0.414396 0.9100967 0 0.4144006 0.9100946 0 -0.4144006 0.9100946 0 -0.414396 0.9100967 -0.3788799 -0.5201955 0.7654062 -1 0 0 -1 0 0 -0.3788633 0.5201906 0.7654178 0.3147687 0 0.9491685 0.3147696 0 0.9491682 0.3788582 0.5201822 0.765426 0.3788689 -0.5201867 0.7654177 -0.5887318 -0.8083285 0 -0.5887303 -0.8083297 0 -0.3147764 0 -0.9491659 -0.3147747 0 -0.9491665 -0.5887194 0.8083374 0 -0.5887211 0.8083363 0 0 0.414396 -0.9100967 0 0.4144006 -0.9100946 0.5887211 0.8083363 0 0.5887178 0.8083387 0 0 -0.4144006 -0.9100946 0 -0.414396 -0.9100967 0.5887286 -0.8083309 0 0.5887318 -0.8083285 0 -0.3788751 -0.5201966 -0.7654079 0 0 -1 -0.3788676 0.5201914 -0.7654152 0.3147687 0 -0.9491685 0.314767 0 -0.949169 0.378856 0.5201818 -0.7654274 0.3788673 -0.5201871 -0.7654182 0.01015108 0 0.9999486 0.01015114 0 0.9999485 -1 -3.72892e-7 0 -1 -3.72893e-7 0 1 2.07316e-7 -1.63921e-7 1 2.07314e-7 -1.63948e-7 0.0101509 0 -0.9999485 0.01015079 0 -0.9999486</float_array>
          <technique_common>
            <accessor source="#ID28_008-mesh-normals-array" count="52" stride="3">
              <param name="X" type="float"/>
              <param name="Y" type="float"/>
              <param name="Z" type="float"/>
            </accessor>
          </technique_common>
        </source>
        <source id="ID28_008-mesh-map-0">
          <float_array id="ID28_008-mesh-map-0-array" count="456">0.002848029 0.3071282 0.1936668 0.9914817 0.1936668 0.3071282 0.1936668 0.9914817 0.002848029 0.3071282 0.002848029 0.9914817 0.002848029 0.3071282 0.1936668 0.3071282 0.002848029 0.3071282 0.1936668 0.3071282 0.002848029 0.3071282 0.1936668 0.3071282 0.002848029 0.9914817 0.002848029 0.3071282 0.002848029 0.3071282 0.002848029 0.3071282 0.002848029 0.9914817 0.002848029 0.9914817 0.1936668 0.9914817 0.002848029 0.9914817 0.002848029 0.9914817 0.002848029 0.9914817 0.1936668 0.9914817 0.1936668 0.9914817 0.1936668 0.9914817 0.1936668 0.3071282 0.1936668 0.3071282 0.1936668 0.3071282 0.1936668 0.9914817 0.1936668 0.9914817 0.002848029 0.9914817 0.1936668 0.3071282 0.1936668 0.9914817 0.1936668 0.3071282 0.002848029 0.9914817 0.002848029 0.3071282 0 0 0 0 0 0 0 0 0 0 0 0 0 0 0 0 0 0 0 0 0 0 0 0 0 0 0 0 0 0 0 0 0 0 0 0 0 0 0 0 0 0 0 0 0 0 0 0 0 0 0 0 0 0 0 0 0 0 0 0 0 0 0 0 0 0 0 0 0 0 0 0 0 0 0 0 0 0 0 0 0 0 0 0 0 0 0 0 0 0 0 0 0 0 0 0 0 0 0 0 0 0 0 0 0 0 0 0 0 0 0 0 0 0 0 0 0 0 0 0 0 0 0 0 0 0 0 0 0 0 0 0 0 0 0 0 0 0 0 0 0 0 0 0 0 0 0 0 0 0 0 0 0 0 0 0 0 0 0 0 0 0 0 0 0 0 0 0 0 0 0 0 0 0 0 0 0 0 0 0 0 0 0 0 0 0 0 0 0 0 0 0 0 0 0 0 0 0 0 0 0 0 0 0 0 0 0 0 0 0 0 0 0 0 0 0 0 0 0 0 0 0 0 0 0 0 0 0 0 0 0 0 0 0 0 0 0 0 0 0 0 0 0 0 0 0 0 0 0 0 0 0 0 0 0 0 0 0 0 0 0 0 0 0 0 0 0 0 0 0 0 0 0 0 0 0 0 0 0 0 0 0 0 0 0 0 0 0 0 0 0 0 0 0 0 0 0 0 0 0 0 0 0 0 0 0 0 0 0 0 0 0 0 0 0 0 0 0 0 0 0 0 0 0 0 0 0 0 0 0 0 0 0 0 0 0 0 0 0 0 0 0 0 0 0 0 0 0 0 0 0 0 0 0 0 0 0 0 0 0 0 0 0 0 0 0 0 0 0 0 0 0 0 0 0 0 0 0 0 0 0 0 0 0</float_array>
          <technique_common>
            <accessor source="#ID28_008-mesh-map-0-array" count="228" stride="2">
              <param name="S" type="float"/>
              <param name="T" type="float"/>
            </accessor>
          </technique_common>
        </source>
        <source id="ID28_008-mesh-map-1">
          <float_array id="ID28_008-mesh-map-1-array" count="456">0 0 0 0 0 0 0 0 0 0 0 0 0 0 0 0 0 0 0 0 0 0 0 0 0 0 0 0 0 0 0 0 0 0 0 0 0 0 0 0 0 0 0 0 0 0 0 0 0 0 0 0 0 0 0 0 0 0 0 0 0 0 0 0 0 0 0 0 0 0 0 0 0 0.01311647 0.3888524 0.01311647 0 0.2999751 0.3888524 0.2999751 0 0.2999751 0.3888524 0.01311647 0.3818629 0.2949326 0.3818629 0.008074223 0.005921304 0.2949326 0.005921304 0.008074223 0.005921304 0.2949326 0.3818629 0.008074223 0 0.2999751 0 0 0.3888524 0.2999751 0.3888524 0 0.3888524 0.2999751 0 0 0.3818629 0.008074223 0.3818629 0.2949326 0.005921304 0.008074223 0.005921304 0.2949326 0.005921304 0.008074223 0.3818629 0.2949326 0.7801825 0.3092805 0.7801825 0.9890267 0.7781319 0.3068255 0.7781319 0.9914817 0.7781319 0.3068255 0.7801825 0.9890267 0 0.01311647 0 0.2999751 0.3888524 0.01311647 0.3888524 0.2999751 0.3888524 0.01311647 0 0.2999751 0.7667412 0.2922544 0.768621 0.2949326 0.3945591 0.2922544 0.3926794 0.2949326 0.3945591 0.2922544 0.768621 0.2949326 0.3818629 0.2949326 0.005921304 0.2949326 0.3799832 0.2922544 0.007800996 0.2922544 0.3799832 0.2922544 0.005921304 0.2949326 0.007800996 0.2922544 0.005921304 0.2949326 2.25281e-4 0.2922544 0.001394212 0.008355557 0.001394212 0.297297 0.3874581 0.008355557 0.3874581 0.297297 0.3874581 0.008355557 0.001394212 0.297297 0.774317 0.2922544 0.768621 0.2949326 0.7667412 0.2922544 0.9978519 0.9890267 0.9999025 0.9914817 0.9978519 0.3092805 0.9999025 0.3068255 0.9978519 0.3092805 0.9999025 0.9914817 0.7667412 0.003312945 0.7667412 0.2922544 0.3945591 0.003312945 0.3945591 0.2922544 0.3945591 0.003312945 0.7667412 0.2922544 0.9999025 0.9914817 0.9978519 0.9890267 0.9978519 0.9989211 0.007800996 0.2922544 0.007800996 0.003312945 0.3799832 0.2922544 0.3799832 0.003312945 0.3799832 0.2922544 0.007800996 0.003312945 0.9999025 0.3068255 0.9978519 0.2993861 0.9978519 0.3092805 2.25281e-4 0.2922544 2.25281e-4 0.003312945 0.007800996 0.2922544 0.007800996 0.003312945 0.007800996 0.2922544 2.25281e-4 0.003312945 0.7775824 0.9890267 0.7718863 0.9914817 0.7775824 0.3092805 0.7718863 0.3068255 0.7775824 0.3092805 0.7718863 0.9914817 0.7667412 0.003312945 0.774317 0.003312945 0.7667412 0.2922544 0.774317 0.2922544 0.7667412 0.2922544 0.774317 0.003312945 1.001416 0.9890267 0.7801825 0.9890267 1.001416 0.3092805 0.7801825 0.3092805 1.001416 0.3092805 0.7801825 0.9890267 0.7700066 0.9989211 0.3978245 0.9989211 0.7718863 0.9914817 0.3959448 0.9914817 0.7718863 0.9914817 0.3978245 0.9989211 0.7766188 0.9989211 0.9978519 0.9989211 0.7766188 0.9890267 0.9978519 0.9890267 0.7766188 0.9890267 0.9978519 0.9989211 0.7718863 0.3068255 0.3959448 0.3068255 0.7700066 0.2993861 0.3978245 0.2993861 0.7700066 0.2993861 0.3959448 0.3068255 0.7766188 0.3092805 0.9978519 0.3092805 0.7766188 0.2993861 0.9978519 0.2993861 0.7766188 0.2993861 0.9978519 0.3092805 0.7718863 0.3068255 0.7700066 0.2993861 0.7775824 0.3092805 0.7718863 0.9914817 0.3959448 0.9914817 0.7718863 0.3068255 0.3959448 0.3068255 0.7718863 0.3068255 0.3959448 0.9914817 0.7718863 0.9914817 0.7775824 0.9890267 0.7700066 0.9989211 0.7766188 0.9890267 0.7766188 0.3092805 0.7745683 0.9914817 0.7745683 0.3068255 0.7745683 0.9914817 0.7766188 0.3092805 0.3902487 0.9890267 0.3959448 0.9914817 0.3978245 0.9989211 0.3978245 0.2993861 0.3959448 0.3068255 0.3902487 0.3092805 0 0 0 0 0 0 0 0 0 0 0 0 0 0 0 0 0 0 0 0 0 0 0 0 0 0 0 0 0 0 0 0 0 0 0 0 0 0 0 0 0 0 0 0 0 0 0 0 0 0 0 0 0 0 0 0 0 0 0 0 0 0 0 0 0 0 0 0 0 0 0 0</float_array>
          <technique_common>
            <accessor source="#ID28_008-mesh-map-1-array" count="228" stride="2">
              <param name="S" type="float"/>
              <param name="T" type="float"/>
            </accessor>
          </technique_common>
        </source>
        <source id="ID28_008-mesh-map-2">
          <float_array id="ID28_008-mesh-map-2-array" count="456">0 0 0 0 0 0 0 0 0 0 0 0 0 0 0 0 0 0 0 0 0 0 0 0 0 0 0 0 0 0 0 0 0 0 0 0 0 0 0 0 0 0 0 0 0 0 0 0 0 0 0 0 0 0 0 0 0 0 0 0 0 0 0 0 0 0 0 0 0 0 0 0 0 0 0 0 0 0 0 0 0 0 0 0 0 0 0 0 0 0 0 0 0 0 0 0 0 0 0 0 0 0 0 0 0 0 0 0 0 0 0 0 0 0 0 0 0 0 0 0 0 0 0 0 0 0 0 0 0 0 0 0 0 0 0 0 0 0 0 0 0 0 0 0 0 0 0 0 0 0 0 0 0 0 0 0 0 0 0 0 0 0 0 0 0 0 0 0 0 0 0 0 0 0 0 0 0 0 0 0 0 0 0 0 0 0 0 0 0 0 0 0 0 0 0 0 0 0 0 0 0 0 0 0 0 0 0 0 0 0 0 0 0 0 0 0 0 0 0 0 0 0 0 0 0 0 0 0 0 0 0 0 0 0 0 0 0 0 0 0 0 0 0 0 0 0 0 0 0 0 0 0 0 0 0 0 0 0 0 0 0 0 0 0 0 0 0 0 0 0 0 0 0 0 0 0 0 0 0 0 0 0 0 0 0 0 0 0 0 0 0 0 0 0 0 0 0 0 0 0 0 0 0 0 0 0 0 0 0 0 0 0 0 0 0 0 0 0 0 0 0 0 0 0 0 0 0 0 0 0 0 0 0 0 0 0 0 0 0 0 0 0 0 0 0 0 0 0 0 0 0 0 0 0 0 0 0 0 0 0 0 0 0 0 0 0 0 0 0 0 0 0 0 0 0 0 0 0 0 0 0 0 0 0 0.3844856 0.9914817 0.3844856 0.3071282 0.1936668 0.9914817 0.1936668 0.3071282 0.1936668 0.9914817 0.3844856 0.3071282 0.1936668 0.3071282 0.3844856 0.3071282 0.1936668 0.3071282 0.3844856 0.3071282 0.1936668 0.3071282 0.3844856 0.3071282 0.3844856 0.9914817 0.3844856 0.9914817 0.3844856 0.3071282 0.3844856 0.3071282 0.3844856 0.3071282 0.3844856 0.9914817 0.1936668 0.9914817 0.1936668 0.9914817 0.3844856 0.9914817 0.3844856 0.9914817 0.3844856 0.9914817 0.1936668 0.9914817 0.1936668 0.9914817 0.1936668 0.9914817 0.1936668 0.3071282 0.1936668 0.3071282 0.1936668 0.3071282 0.1936668 0.9914817 0.3844856 0.3071282 0.3844856 0.9914817 0.1936668 0.3071282 0.1936668 0.9914817 0.1936668 0.3071282 0.3844856 0.9914817</float_array>
          <technique_common>
            <accessor source="#ID28_008-mesh-map-2-array" count="228" stride="2">
              <param name="S" type="float"/>
              <param name="T" type="float"/>
            </accessor>
          </technique_common>
        </source>
        <vertices id="ID28_008-mesh-vertices">
          <input semantic="POSITION" source="#ID28_008-mesh-positions"/>
        </vertices>
        <triangles material="BOX_STUFF15_008-material" count="76">
          <input semantic="VERTEX" source="#ID28_008-mesh-vertices" offset="0"/>
          <input semantic="NORMAL" source="#ID28_008-mesh-normals" offset="1"/>
          <input semantic="TEXCOORD" source="#ID28_008-mesh-map-0" offset="2" set="0"/>
          <input semantic="TEXCOORD" source="#ID28_008-mesh-map-1" offset="2" set="1"/>
          <input semantic="TEXCOORD" source="#ID28_008-mesh-map-2" offset="2" set="2"/>
          <p>0 0 0 1 0 1 2 0 2 1 1 3 0 1 4 3 1 5 4 2 6 5 2 7 6 2 8 5 2 9 4 2 10 7 2 11 8 3 12 9 3 13 10 3 14 9 3 15 8 3 16 11 3 17 12 4 18 13 4 19 14 4 20 13 4 21 12 4 22 15 4 23 16 5 24 17 5 25 18 5 26 17 5 27 16 5 28 19 5 29 20 6 30 21 6 31 22 6 32 21 7 33 20 7 34 23 7 35 24 3 36 25 3 37 26 3 38 27 3 39 26 3 40 25 3 41 28 2 42 29 2 43 30 2 44 31 2 45 30 2 46 29 2 47 32 8 48 33 8 49 34 8 50 35 8 51 34 8 52 33 8 53 36 4 54 37 4 55 38 4 56 39 4 57 38 4 58 37 4 59 40 9 60 41 9 61 42 9 62 43 10 63 42 10 64 41 10 65 44 5 66 45 5 67 46 5 68 47 5 69 46 5 70 45 5 71 48 11 72 49 11 73 50 11 74 51 12 75 50 12 76 49 12 77 52 13 78 53 13 79 54 13 80 55 14 81 54 14 82 53 14 83 56 15 84 57 15 85 58 15 86 59 16 87 60 16 88 61 16 89 62 17 90 61 17 91 60 17 92 63 18 93 64 18 94 65 18 95 66 19 96 67 19 97 68 19 98 69 20 99 68 20 100 67 20 101 70 4 102 71 4 103 72 4 104 73 4 105 72 4 106 71 4 107 74 21 108 75 21 109 76 21 110 77 2 111 78 2 112 79 2 113 80 2 114 79 2 115 78 2 116 81 22 117 82 22 118 83 22 119 84 23 120 85 23 121 86 23 122 87 24 123 86 24 124 85 24 125 88 25 126 89 25 127 90 25 128 91 26 129 90 26 130 89 26 131 92 27 132 93 27 133 94 27 134 95 28 135 94 28 136 93 28 137 96 3 138 97 3 139 98 3 140 99 3 141 98 3 142 97 3 143 100 29 144 101 29 145 102 29 146 103 30 147 102 30 148 101 30 149 104 31 150 105 31 151 106 31 152 107 32 153 106 32 154 105 32 155 108 33 156 109 33 157 110 33 158 111 34 159 110 34 160 109 34 161 112 35 162 113 35 163 114 35 164 115 36 165 114 36 166 113 36 167 116 37 168 117 37 169 118 37 170 119 38 171 120 38 172 121 38 173 122 38 174 121 38 175 120 38 176 123 39 177 124 39 178 125 39 179 126 40 180 127 40 181 128 40 182 129 41 183 128 41 184 127 41 185 130 42 186 131 42 187 132 42 188 133 43 189 134 43 190 135 43 191 136 44 192 137 44 193 138 44 194 139 45 195 138 45 196 137 45 197 140 2 198 141 2 199 142 2 200 143 2 201 142 2 202 141 2 203 144 46 204 145 46 205 146 46 206 147 47 207 146 47 208 145 47 209 148 4 210 149 4 211 150 4 212 151 4 213 150 4 214 149 4 215 152 48 216 153 48 217 154 48 218 155 49 219 154 49 220 153 49 221 156 50 222 157 50 223 158 50 224 159 51 225 158 51 226 157 51 227</p>
        </triangles>
      </mesh>
    </geometry>
  </library_geometries>
  <library_visual_scenes>
    <visual_scene id="Scene" name="Scene">
      <node id="BoxC" name="BoxC" type="NODE">
        <matrix sid="transform">0.0254 0 0 0 0 0.0254 0 0 0 0 0.0254 0 0 0 0 1</matrix>
        <node id="group_0" name="group_0" type="NODE">
          <matrix sid="transform">0.18183 0 0 0 0 0.18183 0 0 0 0 0.18183 0 0 0 0 1</matrix>
          <node id="group_3" name="group_3" type="NODE">
            <matrix sid="transform">-4.421864 -6.74587e-7 7.35412e-15 109.2171 6.67683e-7 -4.467591 1.80682e-14 151.0144 3.61666e-15 8.9776e-15 8.991421 59.4748 0 0 0 0.9999999</matrix>
            <instance_geometry url="#ID28_008-mesh" name="group_3">
              <bind_material>
                <technique_common>
                  <instance_material symbol="BOX_STUFF15_008-material" target="#BOX_STUFF15_008-material">
                    <bind_vertex_input semantic="ID28_008-mesh-map-0" input_semantic="TEXCOORD" input_set="0"/>
                    <bind_vertex_input semantic="ID28_008-mesh-map-1" input_semantic="TEXCOORD" input_set="1"/>
                    <bind_vertex_input semantic="ID28_008-mesh-map-2" input_semantic="TEXCOORD" input_set="2"/>
                  </instance_material>
                </technique_common>
              </bind_material>
            </instance_geometry>
          </node>
        </node>
      </node>
    </visual_scene>
  </library_visual_scenes>
  <scene>
    <instance_visual_scene url="#Scene"/>
  </scene>
</COLLADA>