<?xml version="1.0" encoding="utf-8"?>
<COLLADA xmlns="http://www.collada.org/2005/11/COLLADASchema" version="1.4.1" xmlns:xsi="http://www.w3.org/2001/XMLSchema-instance">
  <asset>
    <contributor>
      <author>Blender User</author>
      <authoring_tool>Blender 2.81.16 commit date:2019-12-04, commit time:11:32, hash:f1aa4d18d49d</authoring_tool>
    </contributor>
    <created>2020-12-06T23:22:57</created>
    <modified>2020-12-06T23:22:57</modified>
    <unit name="meter" meter="1"/>
    <up_axis>Z_UP</up_axis>
  </asset>
  <library_effects>
    <effect id="BOX_STUFF15_008-effect">
      <profile_COMMON>
        <newparam sid="BOX_STUFF15_jpg-surface">
          <surface type="2D">
            <init_from>BOX_STUFF15_jpg</init_from>
          </surface>
        </newparam>
        <newparam sid="BOX_STUFF15_jpg-sampler">
          <sampler2D>
            <source>BOX_STUFF15_jpg-surface</source>
          </sampler2D>
        </newparam>
        <technique sid="common">
          <lambert>
            <emission>
              <color sid="emission">0 0 0 1</color>
            </emission>
            <diffuse>
              <texture texture="BOX_STUFF15_jpg-sampler" texcoord="ID28_008-mesh-map-0"/>
            </diffuse>
            <index_of_refraction>
              <float sid="ior">1.45</float>
            </index_of_refraction>
          </lambert>
        </technique>
      </profile_COMMON>
    </effect>
  </library_effects>
  <library_images>
    <image id="BOX_STUFF15_jpg" name="BOX_STUFF15_jpg">
      <init_from>BOX_STUFF15.jpg</init_from>
    </image>
  </library_images>
  <library_materials>
    <material id="BOX_STUFF15_008-material" name="BOX_STUFF15.008">
      <instance_effect url="#BOX_STUFF15_008-effect"/>
    </material>
  </library_materials>
  <library_geometries>
    <geometry id="ID28_008-mesh" name="ID28.008">
      <mesh>
        <source id="ID28_008-mesh-positions">
          <float_array id="ID28_008-mesh-positions-array" count="480">12.99213 -12.98751 7.610586 3.42725e-6 12.99674 7.478696 3.42725e-6 -12.98751 7.478696 12.99213 12.99674 7.610586 12.99213 -12.98751 7.610586 3.42725e-6 -12.98751 7.348775 12.99213 -12.98751 7.216886 3.42725e-6 -12.98751 7.478696 12.99213 12.99674 7.216886 12.99213 -12.98751 7.610586 12.99213 -12.98751 7.216886 12.99213 12.99674 7.610586 3.42725e-6 12.99674 7.348775 12.99213 12.99674 7.610586 12.99213 12.99674 7.216886 3.42725e-6 12.99674 7.478696 3.42725e-6 12.99674 7.478696 3.42725e-6 -12.98751 7.348775 3.42725e-6 -12.98751 7.478696 3.42725e-6 12.99674 7.348775 12.99213 12.99674 7.216886 3.42725e-6 -12.98751 7.348775 3.42725e-6 12.99674 7.348775 12.99213 -12.98751 7.216886 -12.79821 -12.999 -6.257334 -12.79821 12.99674 -6.257334 -12.79821 -12.999 7.518435 -12.79821 12.99674 7.518437 -12.79821 12.99674 7.518437 -12.79821 12.99674 -6.257334 12.79821 12.99674 7.518437 12.79821 12.99674 -6.257334 12.79821 12.99674 -6.257334 -12.79821 12.99674 -6.257334 12.79821 -12.999 -6.257334 -12.79821 -12.999 -6.257334 -12.79821 -12.999 -6.257334 -12.79821 -12.999 7.518435 12.79821 -12.999 -6.257334 12.79821 -12.999 7.518435 -13.18603 12.90353 7.389823 -13.18603 -12.90579 7.389822 -12.79821 12.99674 7.518437 -12.79821 -12.999 7.518435 12.79821 -12.999 -6.257334 12.79821 -12.999 7.518435 12.79821 12.99674 -6.257334 12.79821 12.99674 7.518437 -12.67023 13.27921 7.389823 -12.79821 12.99674 7.518437 12.67023 13.27921 7.389823 12.79821 12.99674 7.518437 12.79821 -12.999 7.518435 -12.79821 -12.999 7.518435 12.67023 -13.28147 7.389822 -12.67023 -13.28147 7.389822 -12.67023 -13.28147 7.389822 -12.79821 -12.999 7.518435 -13.18603 -12.90579 7.389822 -13.18603 -12.90579 -6.485984 -13.18603 -12.90579 7.389822 -13.18603 12.90353 -6.485984 -13.18603 12.90353 7.389823 -13.18603 12.90353 7.389823 -12.79821 12.99674 7.518437 -12.67023 13.27921 7.389823 13.18603 12.90353 7.389823 12.79821 12.99674 7.518437 13.18603 -12.90579 7.389822 12.79821 -12.999 7.518435 -12.67023 13.27921 -6.485984 -12.67023 13.27921 7.389823 12.67023 13.27921 -6.485984 12.67023 13.27921 7.389823 12.79821 12.99674 7.518437 13.18603 12.90353 7.389823 12.67023 13.27921 7.389823 -12.67023 -13.28147 7.389822 -12.67023 -13.28147 -6.485984 12.67023 -13.28147 7.389822 12.67023 -13.28147 -6.485984 12.79821 -12.999 7.518435 12.67023 -13.28147 7.389822 13.18603 -12.90579 7.389822 -13.18603 -12.90579 7.389822 -13.18603 -12.90579 -6.485984 -12.67023 -13.28147 7.389822 -12.67023 -13.28147 -6.485984 -13.18603 12.90353 -6.485984 -12.79821 12.99674 -6.614594 -13.18603 -12.90579 -6.485984 -12.79821 -12.999 -6.614604 -12.67023 13.27921 -6.485984 -13.18603 12.90353 -6.485984 -12.67023 13.27921 7.389823 -13.18603 12.90353 7.389823 13.18603 12.90353 -6.485984 13.18603 12.90353 7.389823 13.18603 -12.90579 -6.485984 13.18603 -12.90579 7.389822 -12.67023 13.27921 -6.485984 12.67023 13.27921 -6.485984 -12.79821 12.99674 -6.614594 12.79821 12.99674 -6.614594 12.67023 13.27921 -6.485984 12.67023 13.27921 7.389823 13.18603 12.90353 -6.485984 13.18603 12.90353 7.389823 -12.79821 -12.999 -6.614604 12.79821 -12.999 -6.614604 -12.67023 -13.28147 -6.485984 12.67023 -13.28147 -6.485984 13.18603 -12.90579 -6.485984 13.18603 -12.90579 7.389822 12.67023 -13.28147 -6.485984 12.67023 -13.28147 7.389822 -12.79821 -12.999 -6.614604 -12.67023 -13.28147 -6.485984 -13.18603 -12.90579 -6.485984 -12.79821 12.99674 -6.614594 12.79821 12.99674 -6.614594 -12.79821 -12.999 -6.614604 12.79821 -12.999 -6.614604 -12.79821 12.99674 -6.614594 -13.18603 12.90353 -6.485984 -12.67023 13.27921 -6.485984 13.18603 12.90353 -6.485984 13.18603 -12.90579 -6.485984 12.79821 12.99674 -6.614594 12.79821 -12.999 -6.614604 13.18603 12.90353 -6.485984 12.79821 12.99674 -6.614594 12.67023 13.27921 -6.485984 12.67023 -13.28147 -6.485984 12.79821 -12.999 -6.614604 13.18603 -12.90579 -6.485984 -12.99213 12.99674 7.610588 -12.99213 -12.98751 7.610588 -9.63128e-7 12.99674 7.478696 4.42384e-6 -12.98751 7.478696 4.42384e-6 -12.98751 7.478696 -12.99213 -12.98751 7.610588 4.40254e-6 -12.98751 7.348775 -12.99213 -12.98751 7.216887 -12.99213 12.99674 7.610588 -12.99213 12.99674 7.216887 -12.99213 -12.98751 7.610588 -12.99213 -12.98751 7.216887 -9.63128e-7 12.99674 7.478696 -9.84428e-7 12.99674 7.348775 -12.99213 12.99674 7.610588 -12.99213 12.99674 7.216887 -9.84428e-7 12.99674 7.348775 -9.63128e-7 12.99674 7.478696 4.40254e-6 -12.98751 7.348775 4.42384e-6 -12.98751 7.478696 -12.99213 -12.98751 7.216887 -12.99213 12.99674 7.216887 4.40254e-6 -12.98751 7.348775 -9.84428e-7 12.99674 7.348775</float_array>
          <technique_common>
            <accessor source="#ID28_008-mesh-positions-array" count="160" stride="3">
              <param name="X" type="float"/>
              <param name="Y" type="float"/>
              <param name="Z" type="float"/>
            </accessor>
          </technique_common>
        </source>
        <source id="ID28_008-mesh-normals">
          <float_array id="ID28_008-mesh-normals-array" count="147">-0.01015096 0 0.9999486 0 -1 0 1 0 0 0 1 0 -1 0 0 -0.01015096 0 -0.9999486 0 0 1 -0.3147772 0 0.9491657 -0.3147755 0 0.9491662 0 0.4143874 0.9101007 0 0.4143832 0.9101025 0 -0.4143891 0.9100999 0 -0.4143933 0.910098 -0.3788707 -0.5201773 0.7654231 -1 0 0 -0.378865 0.5201682 0.7654322 0.3147772 0 0.9491657 0.3147755 0 0.9491662 0.378865 0.5201682 0.7654322 0.3788715 -0.5201772 0.7654229 -0.5887374 -0.8083245 0 -0.5887384 -0.8083238 0 -0.3147694 0 -0.9491682 -0.3147884 3.59144e-7 -0.9491619 -0.588741 0.8083218 0 -0.5887377 0.8083242 0 0 0.4143785 -0.9101048 0 0.4143744 -0.9101066 0.588741 0.8083218 0 0.5887394 0.808323 0 0 -0.4144056 -0.9100924 0 -0.4144098 -0.9100905 0.5887368 -0.8083249 0 0.588739 -0.8083233 0 -0.378877 -0.5201903 -0.7654112 0 3.66858e-7 -1 -0.3788611 0.5201601 -0.7654395 0.3147694 0 -0.9491682 0.3147884 3.59144e-7 -0.9491619 0.3788611 0.5201601 -0.7654395 0.3788762 -0.5201905 -0.7654115 0.01015108 0 0.9999486 0.01015126 0 0.9999486 0 -1 0 0 -1 0 1 2.07316e-7 -1.63944e-7 1 2.07318e-7 -1.63918e-7 0.01015073 0 -0.9999486 0.01015079 0 -0.9999486</float_array>
          <technique_common>
            <accessor source="#ID28_008-mesh-normals-array" count="49" stride="3">
              <param name="X" type="float"/>
              <param name="Y" type="float"/>
              <param name="Z" type="float"/>
            </accessor>
          </technique_common>
        </source>
        <source id="ID28_008-mesh-map-0">
          <float_array id="ID28_008-mesh-map-0-array" count="456">0.002848029 0.3071282 0.1936668 0.9914817 0.1936668 0.3071282 0.1936668 0.9914817 0.002848029 0.3071282 0.002848029 0.9914817 0.002848029 0.3071282 0.1936668 0.3071282 0.002848029 0.3071282 0.1936668 0.3071282 0.002848029 0.3071282 0.1936668 0.3071282 0.002848029 0.9914817 0.002848029 0.3071282 0.002848029 0.3071282 0.002848029 0.3071282 0.002848029 0.9914817 0.002848029 0.9914817 0.1936668 0.9914817 0.002848029 0.9914817 0.002848029 0.9914817 0.002848029 0.9914817 0.1936668 0.9914817 0.1936668 0.9914817 0.1936668 0.9914817 0.1936668 0.3071282 0.1936668 0.3071282 0.1936668 0.3071282 0.1936668 0.9914817 0.1936668 0.9914817 0.002848029 0.9914817 0.1936668 0.3071282 0.1936668 0.9914817 0.1936668 0.3071282 0.002848029 0.9914817 0.002848029 0.3071282 0 0 0 0 0 0 0 0 0 0 0 0 0 0 0 0 0 0 0 0 0 0 0 0 0 0 0 0 0 0 0 0 0 0 0 0 0 0 0 0 0 0 0 0 0 0 0 0 0 0 0 0 0 0 0 0 0 0 0 0 0 0 0 0 0 0 0 0 0 0 0 0 0 0 0 0 0 0 0 0 0 0 0 0 0 0 0 0 0 0 0 0 0 0 0 0 0 0 0 0 0 0 0 0 0 0 0 0 0 0 0 0 0 0 0 0 0 0 0 0 0 0 0 0 0 0 0 0 0 0 0 0 0 0 0 0 0 0 0 0 0 0 0 0 0 0 0 0 0 0 0 0 0 0 0 0 0 0 0 0 0 0 0 0 0 0 0 0 0 0 0 0 0 0 0 0 0 0 0 0 0 0 0 0 0 0 0 0 0 0 0 0 0 0 0 0 0 0 0 0 0 0 0 0 0 0 0 0 0 0 0 0 0 0 0 0 0 0 0 0 0 0 0 0 0 0 0 0 0 0 0 0 0 0 0 0 0 0 0 0 0 0 0 0 0 0 0 0 0 0 0 0 0 0 0 0 0 0 0 0 0 0 0 0 0 0 0 0 0 0 0 0 0 0 0 0 0 0 0 0 0 0 0 0 0 0 0 0 0 0 0 0 0 0 0 0 0 0 0 0 0 0 0 0 0 0 0 0 0 0 0 0 0 0 0 0 0 0 0 0 0 0 0 0 0 0 0 0 0 0 0 0 0 0 0 0 0 0 0 0 0 0 0 0 0 0 0 0 0 0 0 0 0 0 0 0 0 0 0 0 0 0 0 0 0 0 0 0 0 0 0 0 0 0 0 0 0 0 0 0 0 0 0 0</float_array>
          <technique_common>
            <accessor source="#ID28_008-mesh-map-0-array" count="228" stride="2">
              <param name="S" type="float"/>
              <param name="T" type="float"/>
            </accessor>
          </technique_common>
        </source>
        <source id="ID28_008-mesh-map-1">
          <float_array id="ID28_008-mesh-map-1-array" count="456">0 0 0 0 0 0 0 0 0 0 0 0 0 0 0 0 0 0 0 0 0 0 0 0 0 0 0 0 0 0 0 0 0 0 0 0 0 0 0 0 0 0 0 0 0 0 0 0 0 0 0 0 0 0 0 0 0 0 0 0 0 0 0 0 0 0 0 0 0 0 0 0 0 0.01311665 0.3888524 0.01311665 0 0.2999751 0.3888524 0.2999751 0 0.2999751 0.3888524 0.01311665 0.3818629 0.2949326 0.3818629 0.008074223 0.005921304 0.2949326 0.005921304 0.008074223 0.005921304 0.2949326 0.3818629 0.008074223 0 0.2999751 0 0 0.3888524 0.2999751 0.3888524 0 0.3888524 0.2999751 0 0 0.3818629 0.008074223 0.3818629 0.2949326 0.005921304 0.008074223 0.005921304 0.2949326 0.005921304 0.008074223 0.3818629 0.2949326 0.7801825 0.3092805 0.7801825 0.9890267 0.7781319 0.3068255 0.7781319 0.9914817 0.7781319 0.3068255 0.7801825 0.9890267 0 0.01311665 0 0.2999751 0.3888524 0.01311665 0.3888524 0.2999751 0.3888524 0.01311665 0 0.2999751 0.7667412 0.2922544 0.768621 0.2949326 0.3945591 0.2922544 0.3926794 0.2949326 0.3945591 0.2922544 0.768621 0.2949326 0.3818629 0.2949326 0.005921304 0.2949326 0.3799832 0.2922544 0.007800996 0.2922544 0.3799832 0.2922544 0.005921304 0.2949326 0.007800996 0.2922544 0.005921304 0.2949326 2.25281e-4 0.2922544 0.001394212 0.008355557 0.001394212 0.297297 0.3874581 0.008355557 0.3874581 0.297297 0.3874581 0.008355557 0.001394212 0.297297 0.774317 0.2922544 0.768621 0.2949326 0.7667412 0.2922544 0.9978519 0.9890267 0.9999025 0.9914817 0.9978519 0.3092805 0.9999025 0.3068255 0.9978519 0.3092805 0.9999025 0.9914817 0.7667412 0.003312945 0.7667412 0.2922544 0.3945591 0.003312945 0.3945591 0.2922544 0.3945591 0.003312945 0.7667412 0.2922544 0.9999025 0.9914817 0.9978519 0.9890267 0.9978519 0.9989211 0.007800996 0.2922544 0.007800996 0.003312945 0.3799832 0.2922544 0.3799832 0.003312945 0.3799832 0.2922544 0.007800996 0.003312945 0.9999025 0.3068255 0.9978519 0.2993861 0.9978519 0.3092805 2.25281e-4 0.2922544 2.25281e-4 0.003312945 0.007800996 0.2922544 0.007800996 0.003312945 0.007800996 0.2922544 2.25281e-4 0.003312945 0.7775824 0.9890267 0.7718863 0.9914817 0.7775824 0.3092805 0.7718863 0.3068255 0.7775824 0.3092805 0.7718863 0.9914817 0.7667412 0.003312945 0.774317 0.003312945 0.7667412 0.2922544 0.774317 0.2922544 0.7667412 0.2922544 0.774317 0.003312945 1.001416 0.9890267 0.7801825 0.9890267 1.001416 0.3092805 0.7801825 0.3092805 1.001416 0.3092805 0.7801825 0.9890267 0.7700066 0.9989211 0.3978245 0.9989211 0.7718863 0.9914817 0.3959448 0.9914817 0.7718863 0.9914817 0.3978245 0.9989211 0.7766188 0.9989211 0.9978519 0.9989211 0.7766188 0.9890267 0.9978519 0.9890267 0.7766188 0.9890267 0.9978519 0.9989211 0.7718863 0.3068255 0.3959448 0.3068255 0.7700066 0.2993861 0.3978245 0.2993861 0.7700066 0.2993861 0.3959448 0.3068255 0.7766188 0.3092805 0.9978519 0.3092805 0.7766188 0.2993861 0.9978519 0.2993861 0.7766188 0.2993861 0.9978519 0.3092805 0.7718863 0.3068255 0.7700066 0.2993861 0.7775824 0.3092805 0.7718863 0.9914817 0.3959448 0.9914817 0.7718863 0.3068255 0.3959448 0.3068255 0.7718863 0.3068255 0.3959448 0.9914817 0.7718863 0.9914817 0.7775824 0.9890267 0.7700066 0.9989211 0.7766188 0.9890267 0.7766188 0.3092805 0.7745683 0.9914817 0.7745683 0.3068255 0.7745683 0.9914817 0.7766188 0.3092805 0.3902487 0.9890267 0.3959448 0.9914817 0.3978245 0.9989211 0.3978245 0.2993861 0.3959448 0.3068255 0.3902487 0.3092805 0 0 0 0 0 0 0 0 0 0 0 0 0 0 0 0 0 0 0 0 0 0 0 0 0 0 0 0 0 0 0 0 0 0 0 0 0 0 0 0 0 0 0 0 0 0 0 0 0 0 0 0 0 0 0 0 0 0 0 0 0 0 0 0 0 0 0 0 0 0 0 0</float_array>
          <technique_common>
            <accessor source="#ID28_008-mesh-map-1-array" count="228" stride="2">
              <param name="S" type="float"/>
              <param name="T" type="float"/>
            </accessor>
          </technique_common>
        </source>
        <source id="ID28_008-mesh-map-2">
          <float_array id="ID28_008-mesh-map-2-array" count="456">0 0 0 0 0 0 0 0 0 0 0 0 0 0 0 0 0 0 0 0 0 0 0 0 0 0 0 0 0 0 0 0 0 0 0 0 0 0 0 0 0 0 0 0 0 0 0 0 0 0 0 0 0 0 0 0 0 0 0 0 0 0 0 0 0 0 0 0 0 0 0 0 0 0 0 0 0 0 0 0 0 0 0 0 0 0 0 0 0 0 0 0 0 0 0 0 0 0 0 0 0 0 0 0 0 0 0 0 0 0 0 0 0 0 0 0 0 0 0 0 0 0 0 0 0 0 0 0 0 0 0 0 0 0 0 0 0 0 0 0 0 0 0 0 0 0 0 0 0 0 0 0 0 0 0 0 0 0 0 0 0 0 0 0 0 0 0 0 0 0 0 0 0 0 0 0 0 0 0 0 0 0 0 0 0 0 0 0 0 0 0 0 0 0 0 0 0 0 0 0 0 0 0 0 0 0 0 0 0 0 0 0 0 0 0 0 0 0 0 0 0 0 0 0 0 0 0 0 0 0 0 0 0 0 0 0 0 0 0 0 0 0 0 0 0 0 0 0 0 0 0 0 0 0 0 0 0 0 0 0 0 0 0 0 0 0 0 0 0 0 0 0 0 0 0 0 0 0 0 0 0 0 0 0 0 0 0 0 0 0 0 0 0 0 0 0 0 0 0 0 0 0 0 0 0 0 0 0 0 0 0 0 0 0 0 0 0 0 0 0 0 0 0 0 0 0 0 0 0 0 0 0 0 0 0 0 0 0 0 0 0 0 0 0 0 0 0 0 0 0 0 0 0 0 0 0 0 0 0 0 0 0 0 0 0 0 0 0 0 0 0 0 0 0 0 0 0 0 0 0 0 0 0 0 0.3844856 0.9914817 0.3844856 0.3071282 0.1936668 0.9914817 0.1936668 0.3071282 0.1936668 0.9914817 0.3844856 0.3071282 0.1936668 0.3071282 0.3844856 0.3071282 0.1936668 0.3071282 0.3844856 0.3071282 0.1936668 0.3071282 0.3844856 0.3071282 0.3844856 0.9914817 0.3844856 0.9914817 0.3844856 0.3071282 0.3844856 0.3071282 0.3844856 0.3071282 0.3844856 0.9914817 0.1936668 0.9914817 0.1936668 0.9914817 0.3844856 0.9914817 0.3844856 0.9914817 0.3844856 0.9914817 0.1936668 0.9914817 0.1936668 0.9914817 0.1936668 0.9914817 0.1936668 0.3071282 0.1936668 0.3071282 0.1936668 0.3071282 0.1936668 0.9914817 0.3844856 0.3071282 0.3844856 0.9914817 0.1936668 0.3071282 0.1936668 0.9914817 0.1936668 0.3071282 0.3844856 0.9914817</float_array>
          <technique_common>
            <accessor source="#ID28_008-mesh-map-2-array" count="228" stride="2">
              <param name="S" type="float"/>
              <param name="T" type="float"/>
            </accessor>
          </technique_common>
        </source>
        <vertices id="ID28_008-mesh-vertices">
          <input semantic="POSITION" source="#ID28_008-mesh-positions"/>
        </vertices>
        <triangles material="BOX_STUFF15_008-material" count="76">
          <input semantic="VERTEX" source="#ID28_008-mesh-vertices" offset="0"/>
          <input semantic="NORMAL" source="#ID28_008-mesh-normals" offset="1"/>
          <input semantic="TEXCOORD" source="#ID28_008-mesh-map-0" offset="2" set="0"/>
          <input semantic="TEXCOORD" source="#ID28_008-mesh-map-1" offset="2" set="1"/>
          <input semantic="TEXCOORD" source="#ID28_008-mesh-map-2" offset="2" set="2"/>
          <p>0 0 0 1 0 1 2 0 2 1 0 3 0 0 4 3 0 5 4 1 6 5 1 7 6 1 8 5 1 9 4 1 10 7 1 11 8 2 12 9 2 13 10 2 14 9 2 15 8 2 16 11 2 17 12 3 18 13 3 19 14 3 20 13 3 21 12 3 22 15 3 23 16 4 24 17 4 25 18 4 26 17 4 27 16 4 28 19 4 29 20 5 30 21 5 31 22 5 32 21 5 33 20 5 34 23 5 35 24 2 36 25 2 37 26 2 38 27 2 39 26 2 40 25 2 41 28 1 42 29 1 43 30 1 44 31 1 45 30 1 46 29 1 47 32 6 48 33 6 49 34 6 50 35 6 51 34 6 52 33 6 53 36 3 54 37 3 55 38 3 56 39 3 57 38 3 58 37 3 59 40 7 60 41 7 61 42 7 62 43 8 63 42 8 64 41 8 65 44 4 66 45 4 67 46 4 68 47 4 69 46 4 70 45 4 71 48 9 72 49 9 73 50 9 74 51 10 75 50 10 76 49 10 77 52 11 78 53 11 79 54 11 80 55 12 81 54 12 82 53 12 83 56 13 84 57 13 85 58 13 86 59 4 87 60 4 88 61 4 89 62 14 90 61 14 91 60 14 92 63 15 93 64 15 94 65 15 95 66 16 96 67 16 97 68 16 98 69 17 99 68 17 100 67 17 101 70 3 102 71 3 103 72 3 104 73 3 105 72 3 106 71 3 107 74 18 108 75 18 109 76 18 110 77 1 111 78 1 112 79 1 113 80 1 114 79 1 115 78 1 116 81 19 117 82 19 118 83 19 119 84 20 120 85 20 121 86 20 122 87 21 123 86 21 124 85 21 125 88 22 126 89 22 127 90 22 128 91 23 129 90 23 130 89 23 131 92 24 132 93 24 133 94 24 134 95 25 135 94 25 136 93 25 137 96 2 138 97 2 139 98 2 140 99 2 141 98 2 142 97 2 143 100 26 144 101 26 145 102 26 146 103 27 147 102 27 148 101 27 149 104 28 150 105 28 151 106 28 152 107 29 153 106 29 154 105 29 155 108 30 156 109 30 157 110 30 158 111 31 159 110 31 160 109 31 161 112 32 162 113 32 163 114 32 164 115 33 165 114 33 166 113 33 167 116 34 168 117 34 169 118 34 170 119 35 171 120 35 172 121 35 173 122 35 174 121 35 175 120 35 176 123 36 177 124 36 178 125 36 179 126 37 180 127 37 181 128 37 182 129 38 183 128 38 184 127 38 185 130 39 186 131 39 187 132 39 188 133 40 189 134 40 190 135 40 191 136 41 192 137 41 193 138 41 194 139 42 195 138 42 196 137 42 197 140 43 198 141 43 199 142 43 200 143 44 201 142 44 202 141 44 203 144 4 204 145 4 205 146 4 206 147 4 207 146 4 208 145 4 209 148 3 210 149 3 211 150 3 212 151 3 213 150 3 214 149 3 215 152 45 216 153 45 217 154 45 218 155 46 219 154 46 220 153 46 221 156 47 222 157 47 223 158 47 224 159 48 225 158 48 226 157 48 227</p>
        </triangles>
      </mesh>
    </geometry>
  </library_geometries>
  <library_visual_scenes>
    <visual_scene id="Scene" name="Scene">
      <node id="BoxC" name="BoxC" type="NODE">
        <matrix sid="transform">0.0254 0 0 0 0 0.0254 0 0 0 0 0.0254 0 0 0 0 1</matrix>
        <node id="group_0" name="group_0" type="NODE">
          <matrix sid="transform">0.18183 0 0 0 0 0.18183 0 0 0 0 0.18183 0 0 0 0 1</matrix>
          <node id="group_3" name="group_3" type="NODE">
            <matrix sid="transform">-8.282808 -1.71716e-6 7.35413e-15 0 1.25067e-6 -11.37227 1.80682e-14 0 6.77455e-15 2.28525e-14 8.991421 0 0 0 0 0.9999999</matrix>
            <instance_geometry url="#ID28_008-mesh" name="group_3">
              <bind_material>
                <technique_common>
                  <instance_material symbol="BOX_STUFF15_008-material" target="#BOX_STUFF15_008-material">
                    <bind_vertex_input semantic="ID28_008-mesh-map-0" input_semantic="TEXCOORD" input_set="0"/>
                    <bind_vertex_input semantic="ID28_008-mesh-map-1" input_semantic="TEXCOORD" input_set="1"/>
                    <bind_vertex_input semantic="ID28_008-mesh-map-2" input_semantic="TEXCOORD" input_set="2"/>
                  </instance_material>
                </technique_common>
              </bind_material>
            </instance_geometry>
          </node>
        </node>
      </node>
    </visual_scene>
  </library_visual_scenes>
  <scene>
    <instance_visual_scene url="#Scene"/>
  </scene>
</COLLADA>