<?xml version="1.0" encoding="utf-8"?>
<COLLADA xmlns="http://www.collada.org/2005/11/COLLADASchema" version="1.4.1" xmlns:xsi="http://www.w3.org/2001/XMLSchema-instance">
  <asset>
    <contributor>
      <author>Blender User</author>
      <authoring_tool>Blender 2.83.0 commit date:2020-06-03, commit time:14:38, hash:211b6c29f771</authoring_tool>
    </contributor>
    <created>2020-07-09T14:39:56</created>
    <modified>2020-07-09T14:39:56</modified>
    <unit name="meter" meter="1"/>
    <up_axis>Z_UP</up_axis>
  </asset>
  <library_cameras>
    <camera id="Camera_002-camera" name="Camera.002">
      <optics>
        <technique_common>
          <perspective>
            <xfov sid="xfov">39.59775</xfov>
            <aspect_ratio>1.777778</aspect_ratio>
            <znear sid="znear">0.1</znear>
            <zfar sid="zfar">100</zfar>
          </perspective>
        </technique_common>
      </optics>
      <extra>
        <technique profile="blender">
          <shiftx sid="shiftx" type="float">0</shiftx>
          <shifty sid="shifty" type="float">0</shifty>
          <dof_distance sid="dof_distance" type="float">10</dof_distance>
        </technique>
      </extra>
    </camera>
    <camera id="Camera_001-camera" name="Camera.001">
      <optics>
        <technique_common>
          <perspective>
            <xfov sid="xfov">39.59775</xfov>
            <aspect_ratio>1.777778</aspect_ratio>
            <znear sid="znear">0.1</znear>
            <zfar sid="zfar">100</zfar>
          </perspective>
        </technique_common>
      </optics>
      <extra>
        <technique profile="blender">
          <shiftx sid="shiftx" type="float">0</shiftx>
          <shifty sid="shifty" type="float">0</shifty>
          <dof_distance sid="dof_distance" type="float">10</dof_distance>
        </technique>
      </extra>
    </camera>
    <camera id="Camera-camera" name="Camera">
      <optics>
        <technique_common>
          <perspective>
            <xfov sid="xfov">39.59775</xfov>
            <aspect_ratio>1.777778</aspect_ratio>
            <znear sid="znear">0.1</znear>
            <zfar sid="zfar">100</zfar>
          </perspective>
        </technique_common>
      </optics>
      <extra>
        <technique profile="blender">
          <shiftx sid="shiftx" type="float">0</shiftx>
          <shifty sid="shifty" type="float">0</shifty>
          <dof_distance sid="dof_distance" type="float">10</dof_distance>
        </technique>
      </extra>
    </camera>
  </library_cameras>
  <library_lights>
    <light id="Light_002-light" name="Light.002">
      <technique_common>
        <point>
          <color sid="color">1000 1000 1000</color>
          <constant_attenuation>1</constant_attenuation>
          <linear_attenuation>0</linear_attenuation>
          <quadratic_attenuation>0.00111109</quadratic_attenuation>
        </point>
      </technique_common>
      <extra>
        <technique profile="blender">
          <type sid="type" type="int">0</type>
          <flag sid="flag" type="int">0</flag>
          <mode sid="mode" type="int">1</mode>
          <gamma sid="blender_gamma" type="float">1</gamma>
          <red sid="red" type="float">1</red>
          <green sid="green" type="float">1</green>
          <blue sid="blue" type="float">1</blue>
          <shadow_r sid="blender_shadow_r" type="float">0</shadow_r>
          <shadow_g sid="blender_shadow_g" type="float">0</shadow_g>
          <shadow_b sid="blender_shadow_b" type="float">0</shadow_b>
          <energy sid="blender_energy" type="float">1000</energy>
          <dist sid="blender_dist" type="float">29.99998</dist>
          <spotsize sid="spotsize" type="float">75</spotsize>
          <spotblend sid="spotblend" type="float">0.15</spotblend>
          <att1 sid="att1" type="float">0</att1>
          <att2 sid="att2" type="float">1</att2>
          <falloff_type sid="falloff_type" type="int">2</falloff_type>
          <clipsta sid="clipsta" type="float">0.04999995</clipsta>
          <clipend sid="clipend" type="float">30.002</clipend>
          <bias sid="bias" type="float">1</bias>
          <soft sid="soft" type="float">3</soft>
          <bufsize sid="bufsize" type="int">2880</bufsize>
          <samp sid="samp" type="int">3</samp>
          <buffers sid="buffers" type="int">1</buffers>
          <area_shape sid="area_shape" type="int">1</area_shape>
          <area_size sid="area_size" type="float">0.1</area_size>
          <area_sizey sid="area_sizey" type="float">0.1</area_sizey>
          <area_sizez sid="area_sizez" type="float">1</area_sizez>
        </technique>
      </extra>
    </light>
    <light id="Light_001-light" name="Light.001">
      <technique_common>
        <point>
          <color sid="color">1000 1000 1000</color>
          <constant_attenuation>1</constant_attenuation>
          <linear_attenuation>0</linear_attenuation>
          <quadratic_attenuation>0.00111109</quadratic_attenuation>
        </point>
      </technique_common>
      <extra>
        <technique profile="blender">
          <type sid="type" type="int">0</type>
          <flag sid="flag" type="int">0</flag>
          <mode sid="mode" type="int">1</mode>
          <gamma sid="blender_gamma" type="float">1</gamma>
          <red sid="red" type="float">1</red>
          <green sid="green" type="float">1</green>
          <blue sid="blue" type="float">1</blue>
          <shadow_r sid="blender_shadow_r" type="float">0</shadow_r>
          <shadow_g sid="blender_shadow_g" type="float">0</shadow_g>
          <shadow_b sid="blender_shadow_b" type="float">0</shadow_b>
          <energy sid="blender_energy" type="float">1000</energy>
          <dist sid="blender_dist" type="float">29.99998</dist>
          <spotsize sid="spotsize" type="float">75</spotsize>
          <spotblend sid="spotblend" type="float">0.15</spotblend>
          <att1 sid="att1" type="float">0</att1>
          <att2 sid="att2" type="float">1</att2>
          <falloff_type sid="falloff_type" type="int">2</falloff_type>
          <clipsta sid="clipsta" type="float">0.04999995</clipsta>
          <clipend sid="clipend" type="float">30.002</clipend>
          <bias sid="bias" type="float">1</bias>
          <soft sid="soft" type="float">3</soft>
          <bufsize sid="bufsize" type="int">2880</bufsize>
          <samp sid="samp" type="int">3</samp>
          <buffers sid="buffers" type="int">1</buffers>
          <area_shape sid="area_shape" type="int">1</area_shape>
          <area_size sid="area_size" type="float">0.1</area_size>
          <area_sizey sid="area_sizey" type="float">0.1</area_sizey>
          <area_sizez sid="area_sizez" type="float">1</area_sizez>
        </technique>
      </extra>
    </light>
    <light id="Light-light" name="Light">
      <technique_common>
        <point>
          <color sid="color">1000 1000 1000</color>
          <constant_attenuation>1</constant_attenuation>
          <linear_attenuation>0</linear_attenuation>
          <quadratic_attenuation>0.00111109</quadratic_attenuation>
        </point>
      </technique_common>
      <extra>
        <technique profile="blender">
          <type sid="type" type="int">0</type>
          <flag sid="flag" type="int">0</flag>
          <mode sid="mode" type="int">1</mode>
          <gamma sid="blender_gamma" type="float">1</gamma>
          <red sid="red" type="float">1</red>
          <green sid="green" type="float">1</green>
          <blue sid="blue" type="float">1</blue>
          <shadow_r sid="blender_shadow_r" type="float">0</shadow_r>
          <shadow_g sid="blender_shadow_g" type="float">0</shadow_g>
          <shadow_b sid="blender_shadow_b" type="float">0</shadow_b>
          <energy sid="blender_energy" type="float">1000</energy>
          <dist sid="blender_dist" type="float">29.99998</dist>
          <spotsize sid="spotsize" type="float">75</spotsize>
          <spotblend sid="spotblend" type="float">0.15</spotblend>
          <att1 sid="att1" type="float">0</att1>
          <att2 sid="att2" type="float">1</att2>
          <falloff_type sid="falloff_type" type="int">2</falloff_type>
          <clipsta sid="clipsta" type="float">0.04999995</clipsta>
          <clipend sid="clipend" type="float">30.002</clipend>
          <bias sid="bias" type="float">1</bias>
          <soft sid="soft" type="float">3</soft>
          <bufsize sid="bufsize" type="int">2880</bufsize>
          <samp sid="samp" type="int">3</samp>
          <buffers sid="buffers" type="int">1</buffers>
          <area_shape sid="area_shape" type="int">1</area_shape>
          <area_size sid="area_size" type="float">0.1</area_size>
          <area_sizey sid="area_sizey" type="float">0.1</area_sizey>
          <area_sizez sid="area_sizez" type="float">1</area_sizez>
        </technique>
      </extra>
    </light>
  </library_lights>
  <library_effects>
    <effect id="BOX_STUFF18_006-effect">
      <profile_COMMON>
        <newparam sid="BOX_STUFF18_jpg-surface">
          <surface type="2D">
            <init_from>BOX_STUFF18_jpg</init_from>
          </surface>
        </newparam>
        <newparam sid="BOX_STUFF18_jpg-sampler">
          <sampler2D>
            <source>BOX_STUFF18_jpg-surface</source>
          </sampler2D>
        </newparam>
        <technique sid="common">
          <lambert>
            <emission>
              <color sid="emission">0 0 0 1</color>
            </emission>
            <diffuse>
              <texture texture="BOX_STUFF18_jpg-sampler" texcoord="ID158_006-mesh-map-0"/>
            </diffuse>
            <index_of_refraction>
              <float sid="ior">1.45</float>
            </index_of_refraction>
          </lambert>
        </technique>
      </profile_COMMON>
    </effect>
  </library_effects>
  <library_images>
    <image id="BOX_STUFF18_jpg" name="BOX_STUFF18_jpg">
      <init_from>BOX_STUFF18.jpg</init_from>
    </image>
  </library_images>
  <library_materials>
    <material id="BOX_STUFF18_006-material" name="BOX_STUFF18.006">
      <instance_effect url="#BOX_STUFF18_006-effect"/>
    </material>
  </library_materials>
  <library_geometries>
    <geometry id="ID158_006-mesh" name="ID158.006">
      <mesh>
        <source id="ID158_006-mesh-positions">
          <float_array id="ID158_006-mesh-positions-array" count="480">1.766929 143.1874 1.766929 1.766929 1.766929 150.2898 1.766929 1.766929 1.766929 1.766929 143.1874 150.2898 1.766929 1.766929 150.2898 204.2631 1.766929 1.766929 1.766929 1.766929 1.766929 204.2631 1.766929 150.2898 204.2631 1.766929 1.766929 1.766929 143.1874 1.766929 1.766929 1.766929 1.766929 204.2631 143.1874 1.766929 204.2631 143.1874 150.2898 1.766929 143.1874 1.766929 204.2631 143.1874 1.766929 1.766929 143.1874 150.2898 1.766929 1.766929 150.2898 0 142.6043 149.6537 0 2.350016 149.6537 1.766929 143.1874 150.2898 204.2631 1.766929 150.2898 204.2631 143.1874 1.766929 204.2631 1.766929 1.766929 204.2631 143.1874 150.2898 2.350016 0 149.6537 204.2631 1.766929 150.2898 1.766929 1.766929 150.2898 203.68 0 149.6537 204.2631 143.1874 150.2898 2.350016 144.9543 149.6537 1.766929 143.1874 150.2898 203.68 144.9543 149.6537 0 142.6043 149.6537 0 2.350016 0.6360945 0 2.350016 149.6537 0 142.6043 0.6360945 2.350016 0 149.6537 1.766929 1.766929 150.2898 0 2.350016 149.6537 2.350016 144.9543 149.6537 0 142.6043 149.6537 1.766929 143.1874 150.2898 206.03 2.350016 149.6537 204.2631 143.1874 150.2898 204.2631 1.766929 150.2898 206.03 142.6043 149.6537 203.68 0 149.6537 2.350016 0 0.6360945 203.68 0 0.6360945 2.350016 0 149.6537 206.03 2.350016 149.6537 204.2631 1.766929 150.2898 203.68 0 149.6537 2.350016 144.9543 149.6537 203.68 144.9543 0.6360945 2.350016 144.9543 0.6360945 203.68 144.9543 149.6537 206.03 142.6043 149.6537 203.68 144.9543 149.6537 204.2631 143.1874 150.2898 1.766929 143.1874 0 0 2.350016 0.6360945 0 142.6043 0.6360945 1.766929 1.766929 0 2.350016 0 149.6537 0 2.350016 0.6360945 2.350016 0 0.6360945 0 2.350016 149.6537 0 142.6043 149.6537 2.350016 144.9543 0.6360945 0 142.6043 0.6360945 2.350016 144.9543 149.6537 206.03 142.6043 0.6360945 206.03 2.350016 149.6537 206.03 2.350016 0.6360945 206.03 142.6043 149.6537 204.2631 1.766929 0 2.350016 0 0.6360945 1.766929 1.766929 0 203.68 0 0.6360945 206.03 2.350016 149.6537 203.68 0 0.6360945 206.03 2.350016 0.6360945 203.68 0 149.6537 2.350016 144.9543 0.6360945 204.2631 143.1874 0 1.766929 143.1874 0 203.68 144.9543 0.6360945 203.68 144.9543 149.6537 206.03 142.6043 0.6360945 203.68 144.9543 0.6360945 206.03 142.6043 149.6537 204.2631 143.1874 0 1.766929 1.766929 0 1.766929 143.1874 0 204.2631 1.766929 0 2.350016 0 0.6360945 0 2.350016 0.6360945 1.766929 1.766929 0 2.350016 144.9543 0.6360945 1.766929 143.1874 0 0 142.6043 0.6360945 206.03 142.6043 0.6360945 204.2631 1.766929 0 204.2631 143.1874 0 206.03 2.350016 0.6360945 206.03 2.350016 0.6360945 203.68 0 0.6360945 204.2631 1.766929 0 206.03 142.6043 0.6360945 204.2631 143.1874 0 203.68 144.9543 0.6360945 201.1338 148.7353 155.5841 -1.221094 144.3581 153.1946 204.0668 77.88699 163.027 1.711904 73.50975 160.6375 1.711904 73.50975 160.6375 -1.221094 144.3581 153.1946 1.739209 73.40544 160.0028 -1.138348 144.042 151.2713 201.1338 148.7353 155.5841 201.2166 148.4192 153.6609 -1.221094 144.3581 153.1946 -1.138348 144.042 151.2713 204.0668 77.88699 163.027 204.0941 77.78269 162.3923 201.1338 148.7353 155.5841 201.2166 148.4192 153.6609 204.0941 77.78269 162.3923 204.0668 77.88699 163.027 1.739209 73.40544 160.0028 1.711904 73.50975 160.6375 201.2166 148.4192 153.6609 204.0941 77.78269 162.3923 -1.138348 144.042 151.2713 1.739209 73.40544 160.0028 1.869364 70.59886 169.5256 210.1239 10.69463 151.0712 203.7819 80.44441 166.1788 8.21145 0.8490677 154.418 8.21145 0.8490677 154.418 1.818531 70.79713 168.9121 8.057415 1.449898 152.5591 1.869364 70.59886 169.5256 209.9699 11.29546 149.2123 8.21145 0.8490677 154.418 8.057415 1.449898 152.5591 210.1239 10.69463 151.0712 203.731 80.64269 165.5654 210.1239 10.69463 151.0712 209.9699 11.29546 149.2123 203.7819 80.44441 166.1788 203.7819 80.44441 166.1788 1.818531 70.79713 168.9121 1.869364 70.59886 169.5256 203.731 80.64269 165.5654 209.9699 11.29546 149.2123 1.818531 70.79713 168.9121 203.731 80.64269 165.5654 8.057415 1.449898 152.5591</float_array>
          <technique_common>
            <accessor source="#ID158_006-mesh-positions-array" count="160" stride="3">
              <param name="X" type="float"/>
              <param name="Y" type="float"/>
              <param name="Z" type="float"/>
            </accessor>
          </technique_common>
        </source>
        <source id="ID158_006-mesh-normals">
          <float_array id="ID158_006-mesh-normals-array" count="183">1 0 0 0 1 0 0 0 1 0 -1 0 -0.3387191 0 0.9408876 -0.3387203 0 0.9408872 -1 0 0 0 -0.3387188 0.9408876 0 -0.3387189 0.9408876 0 0.338725 0.9408855 0 0.3387237 0.940886 -0.4278027 -0.4278162 0.796215 -0.4278132 0.427818 0.7962083 0.3387371 0 0.9408811 0.3387097 0 0.9408909 0.4278151 -0.4278151 0.7962088 0.4278185 0.4278185 0.7962052 -0.3387195 0 -0.9408874 -0.3387194 0 -0.9408875 -0.7071068 -0.7071068 0 -0.7071068 -0.7071068 0 -0.7071053 0.7071083 0 -0.7071053 0.7071083 0 0 -0.3387195 -0.9408875 0 -0.3387195 -0.9408874 0.7071092 -0.7071045 0 0 0.3387256 -0.9408853 0 0.338724 -0.9408859 0.7071077 0.7071059 0 0.7071077 0.7071059 0 0 0 -1 -0.4278143 -0.4278143 -0.7962097 -0.4278162 0.4278181 -0.7962067 0.3387233 0 -0.940886 0.3387233 0 -0.9408861 0.4278199 -0.4278141 -0.7962068 0.4278218 0.4278178 -0.7962039 -0.01399052 0.1038962 0.9944898 -0.01399087 0.1038959 0.9944899 -0.9983517 -0.04506391 -0.03554236 -0.9983515 -0.04506468 -0.03554654 -0.0194137 0.9864414 -0.162962 -0.01941335 0.9864411 -0.1629641 0.9983508 0.04507195 0.03555566 0.9983502 0.04506617 0.03557968 0.01941442 -0.9864462 0.1629322 0.01941341 -0.9864414 0.1629614 0.01436012 -0.122088 -0.9924154 0.01435983 -0.1220889 -0.9924153 0.02640914 -0.2093204 0.9774905 0.02640914 -0.20932 0.9774906 -0.9936359 -0.1011031 0.04965758 -0.9936355 -0.1011058 0.04965895 0.04116535 -0.9497223 -0.3103756 0.04116487 -0.9497217 -0.3103775 0.9936365 0.1011043 -0.04964441 0.9936299 0.1011173 -0.04974871 -0.04116845 0.9497331 0.3103424 -0.04116469 0.9497103 0.3104127 -0.02720975 0.2271149 -0.9734878 -0.02721047 0.2271134 -0.9734882</float_array>
          <technique_common>
            <accessor source="#ID158_006-mesh-normals-array" count="61" stride="3">
              <param name="X" type="float"/>
              <param name="Y" type="float"/>
              <param name="Z" type="float"/>
            </accessor>
          </technique_common>
        </source>
        <source id="ID158_006-mesh-map-0">
          <float_array id="ID158_006-mesh-map-0-array" count="456">0 0.005960941 0.3679089 0.5070238 0.3679089 0.005960941 0.3679089 0.5070238 0 0.005960941 0 0.5070238 0.003490567 0.5070238 0.3625614 0.008915126 0.003490567 0.008915126 0.3625614 0.008915126 0.003490567 0.5070238 0.3625614 0.5070238 0 0.5070238 0.3679089 0 0.3679089 0.5070238 0.3679089 0 0 0.5070238 0 0 0.3625614 0.5070238 0.003490567 0.008915126 0.3625614 0.008915126 0.003490567 0.008915126 0.3625614 0.5070238 0.003490567 0.5070238 0.3634242 0.5070238 0.005964577 0.5048779 0.3619443 0.5048779 0.005964577 0.5048779 0.3634242 0.5070238 0.004484534 0.5070238 0.3679089 0.5070238 0 0.005960941 0.3679089 0.005960941 0 0.005960941 0.3679089 0.5070238 0 0.5070238 0.3691823 0.5050138 0.7272192 0.5071471 0.3681483 0.5071471 0.7272192 0.5071471 0.3691823 0.5050138 0.7261852 0.5050138 0.3625614 0.5070238 0.004524469 0.5048905 0.003490567 0.5070238 0.004524469 0.5048905 0.3625614 0.5070238 0.3615275 0.5048905 0.005964577 0.5048779 0.3619443 0.002145946 0.3619443 0.5048779 0.3619443 0.002145946 0.005964577 0.5048779 0.005964577 0.002145946 0.3691823 0.5050138 0.3681483 0.5071471 0.3650152 0.5050138 0.004524469 0.5048905 3.57437e-4 0.5048905 0.003490567 0.5070238 0.7334993 0.5192571 0.7323713 0.9915907 0.7323713 0.5173016 0.7323713 0.9915907 0.7334993 0.5192571 0.7334993 0.9896352 0.7261852 0.5050138 0.3691823 0.005245864 0.7261852 0.005245864 0.3691823 0.005245864 0.7261852 0.5050138 0.3691823 0.5050138 0.7303523 0.5050138 0.7272192 0.5071471 0.7261852 0.5050138 0.004524469 0.5048905 0.3615275 0.005122542 0.004524469 0.005122542 0.3615275 0.005122542 0.004524469 0.5048905 0.3615275 0.5048905 0.7334993 0.9896352 0.7334993 0.9975166 0.7323713 0.9915907 0.3724383 0.9915907 0.3693051 0.5192571 0.3693051 0.9896352 0.3693051 0.5192571 0.3724383 0.9915907 0.3724383 0.5173016 0.3691823 0.5050138 0.3650152 0.005245864 0.3691823 0.005245864 0.3650152 0.005245864 0.3691823 0.5050138 0.3650152 0.5050138 3.57437e-4 0.5048905 0.004524469 0.005122542 3.57437e-4 0.005122542 0.004524469 0.005122542 3.57437e-4 0.5048905 0.004524469 0.5048905 0.9977406 0.9896352 0.7334993 0.5192571 0.9977406 0.5192571 0.7334993 0.5192571 0.9977406 0.9896352 0.7334993 0.9896352 0.7315091 0.5173016 0.3734722 0.5113758 0.3724383 0.5173016 0.3734722 0.5113758 0.7315091 0.5173016 0.7304751 0.5113758 0.7334993 0.5192571 0.9977406 0.5113758 0.9977406 0.5192571 0.9977406 0.5113758 0.7334993 0.5192571 0.7334993 0.5113758 0.3734722 0.9975166 0.7315091 0.9915907 0.3724383 0.9915907 0.7315091 0.9915907 0.3734722 0.9975166 0.7304751 0.9975166 0.7334993 0.9975166 0.9977406 0.9896352 0.9977406 0.9975166 0.9977406 0.9896352 0.7334993 0.9975166 0.7334993 0.9896352 0.7315091 0.9915907 0.3724383 0.5173016 0.3724383 0.9915907 0.3724383 0.5173016 0.7315091 0.9915907 0.7315091 0.5173016 0.3734722 0.5113758 0.3693051 0.5192571 0.3724383 0.5173016 0.3734722 0.9975166 0.3724383 0.9915907 0.3693051 0.9896352 0.7346422 0.9896352 0.7315091 0.5173016 0.7315091 0.9915907 0.7315091 0.5173016 0.7346422 0.9896352 0.7346422 0.5192571 0.7346422 0.5192571 0.7304751 0.5113758 0.7315091 0.5173016 0.7346422 0.9896352 0.7315091 0.9915907 0.7304751 0.9975166 0 0 0 0 0 0 0 0 0 0 0 0 0 0 0 0 0 0 0 0 0 0 0 0 0 0 0 0 0 0 0 0 0 0 0 0 0 0 0 0 0 0 0 0 0 0 0 0 0 0 0 0 0 0 0 0 0 0 0 0 0 0 0 0 0 0 0 0 0 0 0 0 0 0 0 0 0 0 0 0 0 0 0 0 0 0 0 0 0 0 0 0 0 0 0 0 0 0 0 0 0 0 0 0 0 0 0 0 0 0 0 0 0 0 0 0 0 0 0 0 0 0 0 0 0 0 0 0 0 0 0 0 0 0 0 0 0 0 0 0 0 0 0 0</float_array>
          <technique_common>
            <accessor source="#ID158_006-mesh-map-0-array" count="228" stride="2">
              <param name="S" type="float"/>
              <param name="T" type="float"/>
            </accessor>
          </technique_common>
        </source>
        <source id="ID158_006-mesh-map-1">
          <float_array id="ID158_006-mesh-map-1-array" count="456">0 0 0 0 0 0 0 0 0 0 0 0 0 0 0 0 0 0 0 0 0 0 0 0 0 0 0 0 0 0 0 0 0 0 0 0 0 0 0 0 0 0 0 0 0 0 0 0 0 0 0 0 0 0 0 0 0 0 0 0 0 0 0 0 0 0 0 0 0 0 0 0 0 0 0 0 0 0 0 0 0 0 0 0 0 0 0 0 0 0 0 0 0 0 0 0 0 0 0 0 0 0 0 0 0 0 0 0 0 0 0 0 0 0 0 0 0 0 0 0 0 0 0 0 0 0 0 0 0 0 0 0 0 0 0 0 0 0 0 0 0 0 0 0 0 0 0 0 0 0 0 0 0 0 0 0 0 0 0 0 0 0 0 0 0 0 0 0 0 0 0 0 0 0 0 0 0 0 0 0 0 0 0 0 0 0 0 0 0 0 0 0 0 0 0 0 0 0 0 0 0 0 0 0 0 0 0 0 0 0 0 0 0 0 0 0 0 0 0 0 0 0 0 0 0 0 0 0 0 0 0 0 0 0 0 0 0 0 0 0 0 0 0 0 0 0 0 0 0 0 0 0 0 0 0 0 0 0 0 0 0 0 0 0 0 0 0 0 0 0 0 0 0 0 0 0 0 0 0 0 0 0 0 0 0 0 0 0 0 0 0 0 0 0 0 0 0 0 0 0 0 0 0 0 0 0 0 0 0 0 0 0 0.362204 0.9945536 0.003133118 0.9945536 0.362204 0.7559276 0.003133118 0.7559276 0.362204 0.7559276 0.003133118 0.9945536 0.003133118 0.7559276 0.003133118 0.9945536 0.003133118 0.7559276 0.003133118 0.9945536 0.003133118 0.7559276 0.003133118 0.9945536 0.362204 0.9945536 0.362204 0.9945536 0.003133118 0.9945536 0.003133118 0.9945536 0.003133118 0.9945536 0.362204 0.9945536 0.362204 0.7559276 0.362204 0.7559276 0.362204 0.9945536 0.362204 0.9945536 0.362204 0.9945536 0.362204 0.7559276 0.362204 0.7559276 0.362204 0.7559276 0.003133118 0.7559276 0.003133118 0.7559276 0.003133118 0.7559276 0.362204 0.7559276 0.362204 0.9945536 0.362204 0.7559276 0.003133118 0.9945536 0.003133118 0.7559276 0.003133118 0.9945536 0.362204 0.7559276 0 0 0 0 0 0 0 0 0 0 0 0 0 0 0 0 0 0 0 0 0 0 0 0 0 0 0 0 0 0 0 0 0 0 0 0 0 0 0 0 0 0 0 0 0 0 0 0 0 0 0 0 0 0 0 0 0 0 0 0 0 0 0 0 0 0 0 0 0 0 0 0</float_array>
          <technique_common>
            <accessor source="#ID158_006-mesh-map-1-array" count="228" stride="2">
              <param name="S" type="float"/>
              <param name="T" type="float"/>
            </accessor>
          </technique_common>
        </source>
        <source id="ID158_006-mesh-map-2">
          <float_array id="ID158_006-mesh-map-2-array" count="456">0 0 0 0 0 0 0 0 0 0 0 0 0 0 0 0 0 0 0 0 0 0 0 0 0 0 0 0 0 0 0 0 0 0 0 0 0 0 0 0 0 0 0 0 0 0 0 0 0 0 0 0 0 0 0 0 0 0 0 0 0 0 0 0 0 0 0 0 0 0 0 0 0 0 0 0 0 0 0 0 0 0 0 0 0 0 0 0 0 0 0 0 0 0 0 0 0 0 0 0 0 0 0 0 0 0 0 0 0 0 0 0 0 0 0 0 0 0 0 0 0 0 0 0 0 0 0 0 0 0 0 0 0 0 0 0 0 0 0 0 0 0 0 0 0 0 0 0 0 0 0 0 0 0 0 0 0 0 0 0 0 0 0 0 0 0 0 0 0 0 0 0 0 0 0 0 0 0 0 0 0 0 0 0 0 0 0 0 0 0 0 0 0 0 0 0 0 0 0 0 0 0 0 0 0 0 0 0 0 0 0 0 0 0 0 0 0 0 0 0 0 0 0 0 0 0 0 0 0 0 0 0 0 0 0 0 0 0 0 0 0 0 0 0 0 0 0 0 0 0 0 0 0 0 0 0 0 0 0 0 0 0 0 0 0 0 0 0 0 0 0 0 0 0 0 0 0 0 0 0 0 0 0 0 0 0 0 0 0 0 0 0 0 0 0 0 0 0 0 0 0 0 0 0 0 0 0 0 0 0 0 0 0 0 0 0 0 0 0 0 0 0 0 0 0 0 0 0 0 0 0 0 0 0 0 0 0 0 0 0 0 0 0 0 0 0 0 0 0 0 0 0 0 0 0 0 0 0 0 0 0 0 0 0 0 0 0 0 0 0 0 0 0 0 0 0 0 0 0 0 0 0 0 0 0.003133118 0.7559276 0.362204 0.5173016 0.362204 0.7559276 0.362204 0.5173016 0.003133118 0.7559276 0.003133118 0.5173016 0.003133118 0.5173016 0.003133118 0.7559276 0.003133118 0.5173016 0.003133118 0.7559276 0.003133118 0.5173016 0.003133118 0.7559276 0.362204 0.5173016 0.003133118 0.5173016 0.003133118 0.5173016 0.003133118 0.5173016 0.362204 0.5173016 0.362204 0.5173016 0.362204 0.7559276 0.362204 0.5173016 0.362204 0.5173016 0.362204 0.5173016 0.362204 0.7559276 0.362204 0.7559276 0.362204 0.7559276 0.003133118 0.7559276 0.003133118 0.7559276 0.003133118 0.7559276 0.362204 0.7559276 0.362204 0.7559276 0.362204 0.5173016 0.003133118 0.7559276 0.362204 0.7559276 0.003133118 0.7559276 0.362204 0.5173016 0.003133118 0.5173016</float_array>
          <technique_common>
            <accessor source="#ID158_006-mesh-map-2-array" count="228" stride="2">
              <param name="S" type="float"/>
              <param name="T" type="float"/>
            </accessor>
          </technique_common>
        </source>
        <vertices id="ID158_006-mesh-vertices">
          <input semantic="POSITION" source="#ID158_006-mesh-positions"/>
        </vertices>
        <triangles material="BOX_STUFF18_006-material" count="76">
          <input semantic="VERTEX" source="#ID158_006-mesh-vertices" offset="0"/>
          <input semantic="NORMAL" source="#ID158_006-mesh-normals" offset="1"/>
          <input semantic="TEXCOORD" source="#ID158_006-mesh-map-0" offset="2" set="0"/>
          <input semantic="TEXCOORD" source="#ID158_006-mesh-map-1" offset="2" set="1"/>
          <input semantic="TEXCOORD" source="#ID158_006-mesh-map-2" offset="2" set="2"/>
          <p>0 0 0 1 0 1 2 0 2 1 0 3 0 0 4 3 0 5 4 1 6 5 1 7 6 1 8 5 1 9 4 1 10 7 1 11 8 2 12 9 2 13 10 2 14 9 2 15 8 2 16 11 2 17 12 3 18 13 3 19 14 3 20 13 3 21 12 3 22 15 3 23 16 4 24 17 4 25 18 4 26 17 5 27 16 5 28 19 5 29 20 6 30 21 6 31 22 6 32 21 6 33 20 6 34 23 6 35 24 7 36 25 7 37 26 7 38 25 8 39 24 8 40 27 8 41 28 9 42 29 9 43 30 9 44 29 10 45 28 10 46 31 10 47 32 6 48 33 6 49 34 6 50 33 6 51 32 6 52 35 6 53 36 11 54 37 11 55 38 11 56 39 12 57 40 12 58 41 12 59 42 13 60 43 13 61 44 13 62 43 14 63 42 14 64 45 14 65 46 3 66 47 3 67 48 3 68 47 3 69 46 3 70 49 3 71 50 15 72 51 15 73 52 15 74 53 1 75 54 1 76 55 1 77 54 1 78 53 1 79 56 1 80 57 16 81 58 16 82 59 16 83 60 17 84 61 17 85 62 17 86 61 18 87 60 18 88 63 18 89 64 19 90 65 19 91 66 19 92 65 20 93 64 20 94 67 20 95 68 21 96 69 21 97 70 21 98 69 22 99 68 22 100 71 22 101 72 0 102 73 0 103 74 0 104 73 0 105 72 0 106 75 0 107 76 23 108 77 23 109 78 23 110 77 24 111 76 24 112 79 24 113 80 25 114 81 25 115 82 25 116 81 25 117 80 25 118 83 25 119 84 26 120 85 26 121 86 26 122 85 27 123 84 27 124 87 27 125 88 28 126 89 28 127 90 28 128 89 29 129 88 29 130 91 29 131 92 30 132 93 30 133 94 30 134 93 30 135 92 30 136 95 30 137 96 31 138 97 31 139 98 31 140 99 32 141 100 32 142 101 32 143 102 33 144 103 33 145 104 33 146 103 34 147 102 34 148 105 34 149 106 35 150 107 35 151 108 35 152 109 36 153 110 36 154 111 36 155 112 37 156 113 37 157 114 37 158 115 38 159 114 38 160 113 38 161 116 39 162 117 39 163 118 39 164 119 40 165 118 40 166 117 40 167 120 41 168 121 41 169 122 41 170 123 42 171 122 42 172 121 42 173 124 43 174 125 43 175 126 43 176 127 44 177 126 44 178 125 44 179 128 45 180 129 45 181 130 45 182 131 46 183 130 46 184 129 46 185 132 47 186 133 47 187 134 47 188 135 48 189 134 48 190 133 48 191 136 49 192 137 49 193 138 49 194 137 50 195 136 50 196 139 50 197 140 51 198 141 51 199 142 51 200 141 52 201 140 52 202 143 52 203 144 53 204 145 53 205 146 53 206 145 54 207 144 54 208 147 54 209 148 55 210 149 55 211 150 55 212 149 56 213 148 56 214 151 56 215 152 57 216 153 57 217 154 57 218 153 58 219 152 58 220 155 58 221 156 59 222 157 59 223 158 59 224 157 60 225 156 60 226 159 60 227</p>
        </triangles>
      </mesh>
    </geometry>
  </library_geometries>
  <library_visual_scenes>
    <visual_scene id="Scene" name="Scene">
      <node id="Light_002" name="Light.002" type="NODE">
        <matrix sid="transform">-0.2908648 -0.7711007 0.5663933 4.076245 0.9551711 -0.1998834 0.2183913 1.005454 -0.05518903 0.6045247 0.7946723 5.903862 0 0 0 1</matrix>
        <instance_light url="#Light_002-light"/>
      </node>
      <node id="Camera_002" name="Camera.002" type="NODE">
        <matrix sid="transform">0.6859207 -0.3240135 0.6515582 7.358891 0.7276763 0.3054209 -0.6141704 -6.925791 -4.01133e-9 0.8953956 0.4452714 4.958309 0 0 0 1</matrix>
        <instance_camera url="#Camera_002-camera"/>
      </node>
      <node id="BoxA" name="BoxA" type="NODE">
        <matrix sid="transform">0.02158544 0 0 0 0 0.02133248 0 0 0 0 0.02161301 0 0 0 0 1</matrix>
        <node id="group_18" name="group_18" type="NODE">
          <matrix sid="transform">0.18183 0 0 0 0 0.18183 0 0 0 0 0.18183 0 0 0 0 0.9999999</matrix>
          <node id="group_22" name="group_22" type="NODE">
            <matrix sid="transform">0.8264838 0 0 0 0 1 0 0 0 0 0.9999999 0 0 0 0 1</matrix>
            <instance_geometry url="#ID158_006-mesh" name="group_22">
              <bind_material>
                <technique_common>
                  <instance_material symbol="BOX_STUFF18_006-material" target="#BOX_STUFF18_006-material">
                    <bind_vertex_input semantic="ID158_006-mesh-map-0" input_semantic="TEXCOORD" input_set="0"/>
                    <bind_vertex_input semantic="ID158_006-mesh-map-1" input_semantic="TEXCOORD" input_set="1"/>
                    <bind_vertex_input semantic="ID158_006-mesh-map-2" input_semantic="TEXCOORD" input_set="2"/>
                  </instance_material>
                </technique_common>
              </bind_material>
            </instance_geometry>
          </node>
        </node>
      </node>
      <node id="Camera_001" name="Camera.001" type="NODE">
        <matrix sid="transform">0.6859207 -0.3240135 0.6515582 7.358891 0.7276763 0.3054209 -0.6141704 -6.925791 -4.01133e-9 0.8953956 0.4452714 4.958309 0 0 0 1</matrix>
        <instance_camera url="#Camera_001-camera"/>
      </node>
      <node id="Light_001" name="Light.001" type="NODE">
        <matrix sid="transform">-0.2908648 -0.7711007 0.5663933 4.076245 0.9551711 -0.1998834 0.2183913 1.005454 -0.05518903 0.6045247 0.7946723 5.903862 0 0 0 1</matrix>
        <instance_light url="#Light_001-light"/>
      </node>
      <node id="Camera" name="Camera" type="NODE">
        <matrix sid="transform">0.6859207 -0.3240135 0.6515582 7.358891 0.7276763 0.3054208 -0.6141704 -6.925791 0 0.8953956 0.4452714 4.958309 0 0 0 1</matrix>
        <instance_camera url="#Camera-camera"/>
      </node>
      <node id="Light" name="Light" type="NODE">
        <matrix sid="transform">-0.2908646 -0.7711008 0.5663932 4.076245 0.9551712 -0.1998834 0.2183912 1.005454 -0.05518906 0.6045247 0.7946723 5.903862 0 0 0 1</matrix>
        <instance_light url="#Light-light"/>
      </node>
    </visual_scene>
  </library_visual_scenes>
  <scene>
    <instance_visual_scene url="#Scene"/>
  </scene>
</COLLADA>