# Blender MTL File: 'None'
# Material Count: 11

newmtl Color_007
Ns 225.000000
Ka 1.000000 1.000000 1.000000
Kd 0.227451 0.227451 0.227451
Ks 0.500000 0.500000 0.500000
Ke 0.000000 0.000000 0.000000
Ni 1.450000
d 1.000000
illum 2

newmtl Color_008
Ns 225.000000
Ka 1.000000 1.000000 1.000000
Kd 0.117647 0.117647 0.117647
Ks 0.500000 0.500000 0.500000
Ke 0.000000 0.000000 0.000000
Ni 1.450000
d 1.000000
illum 2

newmtl Color_J08
Ns 225.000000
Ka 1.000000 1.000000 1.000000
Kd 0.556863 0.317647 0.800000
Ks 0.500000 0.500000 0.500000
Ke 0.000000 0.000000 0.000000
Ni 1.450000
d 1.000000
illum 2

newmtl Metal_Corrogated_Shiny
Ns 225.000000
Ka 1.000000 1.000000 1.000000
Kd 0.800000 0.800000 0.800000
Ks 0.500000 0.500000 0.500000
Ke 0.000000 0.000000 0.000000
Ni 1.450000
d 1.000000
illum 2
map_Kd Metal_Corrogated_Shiny.jpg

newmtl Metal_Seamed
Ns 225.000000
Ka 1.000000 1.000000 1.000000
Kd 0.800000 0.800000 0.800000
Ks 0.500000 0.500000 0.500000
Ke 0.000000 0.000000 0.000000
Ni 1.450000
d 1.000000
illum 2
map_Kd Metal_Seamed.jpg

newmtl Metal_Steel_Textured_White
Ns 225.000000
Ka 1.000000 1.000000 1.000000
Kd 0.800000 0.800000 0.800000
Ks 0.500000 0.500000 0.500000
Ke 0.000000 0.000000 0.000000
Ni 1.450000
d 1.000000
illum 2
map_Kd Metal_Steel_Textured_White.jpg

newmtl Wood_Bamboo_Stalks
Ns 225.000000
Ka 1.000000 1.000000 1.000000
Kd 0.800000 0.800000 0.800000
Ks 0.500000 0.500000 0.500000
Ke 0.000000 0.000000 0.000000
Ni 1.450000
d 1.000000
illum 2
map_Kd Wood_Bamboo_Stalks.jpg

newmtl __Metal_Corrogated_Shiny_1
Ns 225.000000
Ka 1.000000 1.000000 1.000000
Kd 0.800000 0.800000 0.800000
Ks 0.500000 0.500000 0.500000
Ke 0.000000 0.000000 0.000000
Ni 1.450000
d 1.000000
illum 2
map_Kd __Metal_Corrogated_Shiny_1.jpg

newmtl __Metal_Corrogated_Shiny_1_1
Ns 225.000000
Ka 1.000000 1.000000 1.000000
Kd 0.800000 0.800000 0.800000
Ks 0.500000 0.500000 0.500000
Ke 0.000000 0.000000 0.000000
Ni 1.450000
d 1.000000
illum 2
map_Kd __Metal_Corrogated_Shiny_1_1.jpg

newmtl material
Ns 225.000000
Ka 1.000000 1.000000 1.000000
Kd 1.000000 1.000000 1.000000
Ks 0.500000 0.500000 0.500000
Ke 0.000000 0.000000 0.000000
Ni 1.450000
d 1.000000
illum 2

newmtl material_0
Ns 225.000000
Ka 1.000000 1.000000 1.000000
Kd 0.670588 0.690196 0.800000
Ks 0.500000 0.500000 0.500000
Ke 0.000000 0.000000 0.000000
Ni 1.450000
d 1.000000
illum 2
